{
  "totalItems": 7,
  "totalPages": 3,
  "currentPage": 0,
  "tour": [
    {
      "insertTime": "2023-07-10 01:42:30",
      "updateTime": null,
      "deleteYn": "N",
      "deleteTime": null,
      "tid": 1,
      "tname": "강촌-레일바이크 체험1",
      "sights": "서울",
      "main": "액티비티",
      "sub1": "익스트림",
      "sub2": "없음",
      "start_date": "2023-07-20 15:00:00",
      "end_date": "2023-07-23 20:00:00",
      "reservation": "N",
      "address": "Seoul",
      "phone": "010-111-1111",
      "tagOne": "tag1-3",
      "tagSecond": "tag2-1",
      "fileName": "https://i.imgur.com/5DF5FfH.png",
      "fileType": null,
      "fileData": null,
      "price1": "20000",
      "price2": "10000"
    },
    {
      "insertTime": "2023-07-10 01:42:30",
      "updateTime": null,
      "deleteYn": "N",
      "deleteTime": null,
      "tid": 2,
      "tname": "강촌-레일바이크 체험",
      "sights": "서울",
      "main": "액티비티",
      "sub1": "익스트림",
      "sub2": "없음",
      "start_date": "2023-07-20 15:00:00",
      "end_date": "2023-07-23 20:00:00",
      "reservation": "Y",
      "address": "Seoul",
      "phone": "010-111-1111",
      "tagOne": "tag1-3",
      "tagSecond": "tag2-1",
      "fileName": "https://via.placeholder.com/150x150",
      "fileType": null,
      "fileData": null,
      "price1": "20000",
      "price2": "10000"
    },
    {
      "insertTime": "2023-07-10 01:42:30",
      "updateTime": null,
      "deleteYn": "N",
      "deleteTime": null,
      "tid": 4,
      "tname": "윈드카트 1947",
      "sights": "제주도",
      "main": "액티비티",
      "sub1": "익스트림",
      "sub2": "없음",
      "start_date": "2023-07-20 15:00:00",
      "end_date": "2023-07-23 20:00:00",
      "reservation": "N",
      "address": "Jeju",
      "phone": "010-111-1111",
      "tagOne": "tag1-3",
      "tagSecond": "tag2-1",
      "fileName": "https://via.placeholder.com/150x150",
      "fileType": null,
      "fileData": null,
      "price1": "20000",
      "price2": "10000"
    }
  ]
}